^C:\USERS\ДИМА\DESKTOP\KURS_PROG2\OPENGL\LABS\LAB1\PROJECT1\PROJECT1\MAIN.CPP
C:\USERS\Дима\DESKTOP\KURS_PROG2\OPENGL\LABS\LAB1\PROJECT1\PROJECT1\X64\DEBUG\VC143.PDB
C:\USERS\Дима\DESKTOP\KURS_PROG2\OPENGL\LABS\LAB1\PROJECT1\PROJECT1\X64\DEBUG\VC143.IDB
C:\USERS\Дима\DESKTOP\KURS_PROG2\OPENGL\LABS\LAB1\PROJECT1\PROJECT1\X64\DEBUG\MAIN.OBJ
