^C:\USERS\ДИМА\DESKTOP\KURS_PROG2\OPENGL\LABS\LAB1\PROJECT1\PROJECT1\X64\DEBUG\MAIN.OBJ
C:\USERS\Дима\DESKTOP\KURS_PROG2\OPENGL\LABS\LAB1\PROJECT1\X64\DEBUG\LAB1.EXE
C:\USERS\Дима\DESKTOP\KURS_PROG2\OPENGL\LABS\LAB1\PROJECT1\PROJECT1\X64\DEBUG\LAB1.ILK
C:\USERS\Дима\DESKTOP\KURS_PROG2\OPENGL\LABS\LAB1\PROJECT1\X64\DEBUG\LAB1.PDB
